<?xml version="1.0" encoding="UTF-8"?>
<!DOCTYPE svg PUBLIC "-//W3C//DTD SVG 1.1//EN" "http://www.w3.org/Graphics/SVG/1.1/DTD/svg11.dtd">
<svg xmlns="http://www.w3.org/2000/svg" version="1.1" width="300px" height="300px" style="shape-rendering:geometricPrecision; text-rendering:geometricPrecision; image-rendering:optimizeQuality; fill-rule:evenodd; clip-rule:evenodd" xmlns:xlink="http://www.w3.org/1999/xlink">
<g><path style="opacity:1" fill="#201f1f" d="M 59.5,-0.5 C 119.833,-0.5 180.167,-0.5 240.5,-0.5C 242.635,1.36895 245.302,2.03562 248.5,1.5C 251.661,3.96172 255.328,5.29506 259.5,5.5C 261.849,7.341 264.515,8.67433 267.5,9.5C 285.392,20.2938 296.058,35.9605 299.5,56.5C 299.5,118.5 299.5,180.5 299.5,242.5C 293.852,271.816 276.518,290.15 247.5,297.5C 185.844,298.462 124.177,298.795 62.5,298.5C 29.4869,295.485 9.15356,277.818 1.5,245.5C 0.166667,181.5 0.166667,117.5 1.5,53.5C 7.62854,26.0381 24.2952,8.70473 51.5,1.5C 53.8568,1.66331 56.1902,1.49665 58.5,1C 59.056,0.617425 59.3893,0.117425 59.5,-0.5 Z"/></g>
<g><path style="opacity:0.261" fill="#8f8f8f" d="M 57.5,-0.5 C 58.1667,-0.5 58.8333,-0.5 59.5,-0.5C 59.3893,0.117425 59.056,0.617425 58.5,1C 56.1902,1.49665 53.8568,1.66331 51.5,1.5C 53.5,0.833333 55.5,0.166667 57.5,-0.5 Z"/></g>
<g><path style="opacity:0.28" fill="#898a89" d="M 240.5,-0.5 C 241.167,-0.5 241.833,-0.5 242.5,-0.5C 244.5,0.166667 246.5,0.833333 248.5,1.5C 245.302,2.03562 242.635,1.36895 240.5,-0.5 Z"/></g>
<g><path style="opacity:1" fill="#6a6a6a" d="M 248.5,1.5 C 252.673,1.6667 256.34,3.00003 259.5,5.5C 255.328,5.29506 251.661,3.96172 248.5,1.5 Z"/></g>
<g><path style="opacity:0.267" fill="#838383" d="M 259.5,5.5 C 262.754,5.79362 265.421,7.12695 267.5,9.5C 264.515,8.67433 261.849,7.341 259.5,5.5 Z"/></g>
<g><path style="opacity:1" fill="#379230" d="M 161.5,19.5 C 166.75,19.3025 171.75,19.9692 176.5,21.5C 171.29,21.3916 166.29,20.7249 161.5,19.5 Z"/></g>
<g><path style="opacity:1" fill="#a80707" d="M 139.5,19.5 C 134.75,21.0308 129.75,21.6975 124.5,21.5C 129.25,19.9692 134.25,19.3025 139.5,19.5 Z"/></g>
<g><path style="opacity:1" fill="#f50101" d="M 139.5,19.5 C 142.833,19.5 146.167,19.5 149.5,19.5C 149.5,24.1667 149.5,28.8333 149.5,33.5C 147.265,33.2053 145.265,33.5386 143.5,34.5C 138.234,34.1888 133.234,34.8554 128.5,36.5C 120.294,38.2905 112.294,40.7905 104.5,44C 101.028,45.3864 98.0282,47.2197 95.5,49.5C 86.9137,53.2444 79.247,58.4111 72.5,65C 67.9846,69.2148 63.8179,73.7148 60,78.5C 58.9055,80.0779 58.0722,81.7446 57.5,83.5C 56.8333,83.5 56.5,83.8333 56.5,84.5C 49.7487,92.6691 45.082,102.002 42.5,112.5C 40.9261,114.102 40.2594,116.102 40.5,118.5C 33.6583,146.264 35.9916,173.264 47.5,199.5C 47.427,201.027 48.0937,202.027 49.5,202.5C 50.5804,204.996 51.9138,207.33 53.5,209.5C 49.3339,212.417 45.0006,215.084 40.5,217.5C 38.7775,215.747 37.2775,213.747 36,211.5C 23.2673,186.09 18.434,159.423 21.5,131.5C 22.7947,127.733 23.4613,123.733 23.5,119.5C 38.2139,67.117 71.8806,34.4504 124.5,21.5C 129.75,21.6975 134.75,21.0308 139.5,19.5 Z"/></g>
<g><path style="opacity:1" fill="#56f749" d="M 161.5,19.5 C 166.29,20.7249 171.29,21.3916 176.5,21.5C 218.161,30.9864 248.994,54.6531 269,92.5C 270.418,97.7584 272.418,102.758 275,107.5C 276.71,113.581 278.21,119.581 279.5,125.5C 280.27,138.485 280.603,151.485 280.5,164.5C 279.833,169.508 279,174.508 278,179.5C 277.262,183.11 276.095,186.443 274.5,189.5C 273.076,191.515 272.41,193.848 272.5,196.5C 271.167,199.167 269.833,201.833 268.5,204.5C 267.069,205.78 266.402,207.447 266.5,209.5C 265.662,209.842 265.328,210.508 265.5,211.5C 264.094,211.973 263.427,212.973 263.5,214.5C 262.974,216.23 261.974,217.564 260.5,218.5C 256.847,215.338 252.847,212.672 248.5,210.5C 248.5,209.833 248.5,209.167 248.5,208.5C 254.777,198.605 259.444,187.938 262.5,176.5C 264.217,173.155 264.884,169.489 264.5,165.5C 264.5,165.167 264.5,164.833 264.5,164.5C 266.386,157.883 266.719,151.217 265.5,144.5C 265.207,138.783 264.54,133.116 263.5,127.5C 262.851,120.518 260.851,114.185 257.5,108.5C 257.585,105.351 256.585,102.684 254.5,100.5C 254.598,98.4471 253.931,96.7804 252.5,95.5C 252.167,95.5 251.833,95.5 251.5,95.5C 249.665,89.1484 246.331,83.815 241.5,79.5C 240.92,77.2512 239.587,75.5846 237.5,74.5C 235.167,71.5 232.5,68.8333 229.5,66.5C 224.655,60.931 218.988,56.5976 212.5,53.5C 210.025,50.7589 207.025,48.7589 203.5,47.5C 195.48,42.821 186.814,39.4877 177.5,37.5C 174.155,35.783 170.489,35.1164 166.5,35.5C 166.167,35.5 165.833,35.5 165.5,35.5C 161.081,34.0285 156.414,33.3618 151.5,33.5C 151.5,28.8333 151.5,24.1667 151.5,19.5C 154.833,19.5 158.167,19.5 161.5,19.5 Z"/></g>
<g><path style="opacity:1" fill="#af350f" d="M 139.5,19.5 C 142.962,18.5184 146.629,18.185 150.5,18.5C 150.5,23.8333 150.5,29.1667 150.5,34.5C 148.167,34.5 145.833,34.5 143.5,34.5C 145.265,33.5386 147.265,33.2053 149.5,33.5C 149.5,28.8333 149.5,24.1667 149.5,19.5C 146.167,19.5 142.833,19.5 139.5,19.5 Z"/></g>
<g><path style="opacity:1" fill="#59a33b" d="M 150.5,18.5 C 154.371,18.185 158.038,18.5184 161.5,19.5C 158.167,19.5 154.833,19.5 151.5,19.5C 151.5,24.1667 151.5,28.8333 151.5,33.5C 156.414,33.3618 161.081,34.0285 165.5,35.5C 160.5,35.5 155.5,35.5 150.5,35.5C 150.5,35.1667 150.5,34.8333 150.5,34.5C 150.5,29.1667 150.5,23.8333 150.5,18.5 Z"/></g>
<g><path style="opacity:1" fill="#78242d" d="M 143.5,34.5 C 145.833,34.5 148.167,34.5 150.5,34.5C 150.5,34.8333 150.5,35.1667 150.5,35.5C 144.122,35.2946 137.789,35.6279 131.5,36.5C 130.5,36.5 129.5,36.5 128.5,36.5C 133.234,34.8554 138.234,34.1888 143.5,34.5 Z"/></g>
<g><path style="opacity:1" fill="#40a13f" d="M 166.5,35.5 C 170.489,35.1164 174.155,35.783 177.5,37.5C 174.833,37.1667 172.167,36.8333 169.5,36.5C 168.209,36.7373 167.209,36.404 166.5,35.5 Z"/></g>
<g><path style="opacity:1" fill="#3b578d" d="M 150.5,35.5 C 155.5,35.5 160.5,35.5 165.5,35.5C 165.833,35.5 166.167,35.5 166.5,35.5C 167.209,36.404 168.209,36.7373 169.5,36.5C 170.5,37.1667 171.5,37.8333 172.5,38.5C 166.176,37.7676 159.842,37.1009 153.5,36.5C 152.167,36.5 150.833,36.5 149.5,36.5C 141.827,37.1007 134.16,37.7673 126.5,38.5C 128.167,37.8333 129.833,37.1667 131.5,36.5C 137.789,35.6279 144.122,35.2946 150.5,35.5 Z"/></g>
<g><path style="opacity:1" fill="#3b536e" d="M 169.5,36.5 C 172.167,36.8333 174.833,37.1667 177.5,37.5C 186.814,39.4877 195.48,42.821 203.5,47.5C 193.077,44.691 182.744,41.691 172.5,38.5C 171.5,37.8333 170.5,37.1667 169.5,36.5 Z"/></g>
<g><path style="opacity:1" fill="#483f58" d="M 128.5,36.5 C 129.5,36.5 130.5,36.5 131.5,36.5C 129.833,37.1667 128.167,37.8333 126.5,38.5C 119.777,39.7645 113.443,42.0979 107.5,45.5C 103.426,46.6357 99.4262,47.969 95.5,49.5C 98.0282,47.2197 101.028,45.3864 104.5,44C 112.294,40.7905 120.294,38.2905 128.5,36.5 Z"/></g>
<g><path style="opacity:1" fill="#5284db" d="M 153.5,40.5 C 173.749,42.7482 192.415,49.2482 209.5,60C 212.694,62.5271 215.527,65.3605 218,68.5C 218.2,66.6803 219.034,65.347 220.5,64.5C 217.671,74.2987 215.338,84.2987 213.5,94.5C 210.728,91.3063 207.728,88.3063 204.5,85.5C 203.299,81.0652 201.799,76.7319 200,72.5C 198.438,74.9573 197.438,77.624 197,80.5C 184.23,70.7441 169.73,66.0774 153.5,66.5C 153.5,57.8333 153.5,49.1667 153.5,40.5 Z"/></g>
<g><path style="opacity:1" fill="#3d5578" d="M 203.5,47.5 C 207.025,48.7589 210.025,50.7589 212.5,53.5C 208.639,52.7399 205.639,50.7399 203.5,47.5 Z"/></g>
<g><path style="opacity:1" fill="#4479d6" d="M 153.5,36.5 C 159.842,37.1009 166.176,37.7676 172.5,38.5C 182.744,41.691 193.077,44.691 203.5,47.5C 205.639,50.7399 208.639,52.7399 212.5,53.5C 214.854,56.5211 217.521,59.1877 220.5,61.5C 220.5,62.5 220.5,63.5 220.5,64.5C 219.034,65.347 218.2,66.6803 218,68.5C 215.527,65.3605 212.694,62.5271 209.5,60C 192.415,49.2482 173.749,42.7482 153.5,40.5C 153.5,39.1667 153.5,37.8333 153.5,36.5 Z"/></g>
<g><path style="opacity:1" fill="#5080d4" d="M 149.5,42.5 C 149.5,50.5 149.5,58.5 149.5,66.5C 142.059,66.3512 134.725,67.1845 127.5,69C 118.712,72.3144 110.379,76.4811 102.5,81.5C 96.1457,87.1877 90.1457,93.1877 84.5,99.5C 84.631,98.7611 84.4643,98.0944 84,97.5C 80.2564,98.626 76.423,98.7927 72.5,98C 71.6872,96.6861 70.6872,95.5195 69.5,94.5C 70.7111,93.2798 70.7111,92.1131 69.5,91C 70.4162,90.6258 71.2496,90.1258 72,89.5C 72.3747,86.9999 73.2081,84.6666 74.5,82.5C 73.5569,80.5302 74.2236,79.0302 76.5,78C 76.1667,77.6667 75.8333,77.3333 75.5,77C 77.5,75.6667 79.1667,74 80.5,72C 81.448,71.5172 82.448,71.3505 83.5,71.5C 83.585,69.0712 84.585,67.0712 86.5,65.5C 103.418,51.2916 123.085,43.2916 145.5,41.5C 146.925,41.6233 148.258,41.9566 149.5,42.5 Z"/></g>
<g><path style="opacity:1" fill="#4b405b" d="M 95.5,49.5 C 91.7529,53.8846 87.0862,57.0513 81.5,59C 73.9676,67.6983 65.9676,75.8649 57.5,83.5C 58.0722,81.7446 58.9055,80.0779 60,78.5C 63.8179,73.7148 67.9846,69.2148 72.5,65C 79.247,58.4111 86.9137,53.2444 95.5,49.5 Z"/></g>
<g><path style="opacity:1" fill="#556d8f" d="M 212.5,53.5 C 218.988,56.5976 224.655,60.931 229.5,66.5C 229.167,66.5 228.833,66.5 228.5,66.5C 225.833,64.8333 223.167,63.1667 220.5,61.5C 217.521,59.1877 214.854,56.5211 212.5,53.5 Z"/></g>
<g><path style="opacity:0.996" fill="#414141" d="M 1.5,53.5 C 0.166667,117.5 0.166667,181.5 1.5,245.5C 0.833333,242.833 0.166667,240.167 -0.5,237.5C -0.5,178.5 -0.5,119.5 -0.5,60.5C 0.166667,58.1667 0.833333,55.8333 1.5,53.5 Z"/></g>
<g><path style="opacity:1" fill="#3b5985" d="M 229.5,66.5 C 232.5,68.8333 235.167,71.5 237.5,74.5C 233.456,73.1566 230.789,70.4899 229.5,66.5 Z"/></g>
<g><path style="opacity:1" fill="#7098de" d="M 149.5,36.5 C 150.833,36.5 152.167,36.5 153.5,36.5C 153.5,37.8333 153.5,39.1667 153.5,40.5C 153.5,49.1667 153.5,57.8333 153.5,66.5C 169.73,66.0774 184.23,70.7441 197,80.5C 197.438,77.624 198.438,74.9573 200,72.5C 201.799,76.7319 203.299,81.0652 204.5,85.5C 207.728,88.3063 210.728,91.3063 213.5,94.5C 215.338,84.2987 217.671,74.2987 220.5,64.5C 220.5,63.5 220.5,62.5 220.5,61.5C 223.167,63.1667 225.833,64.8333 228.5,66.5C 227.257,76.2321 225.59,85.8988 223.5,95.5C 222.662,95.8417 222.328,96.5084 222.5,97.5C 220.862,98.1589 219.195,98.8256 217.5,99.5C 216.108,98.3947 214.941,97.0614 214,95.5C 213.175,97.7008 213.675,99.5341 215.5,101C 211.307,104.365 207.307,107.865 203.5,111.5C 201.938,111.733 200.605,112.4 199.5,113.5C 196.311,115.961 192.978,118.294 189.5,120.5C 192.151,108.935 194.484,97.2684 196.5,85.5C 196.32,84.4461 195.987,83.4461 195.5,82.5C 182.91,73.7488 168.91,69.4155 153.5,69.5C 153.5,83.1667 153.5,96.8333 153.5,110.5C 165.479,111.135 174.813,116.468 181.5,126.5C 181.158,127.338 180.492,127.672 179.5,127.5C 179.158,126.662 178.492,126.328 177.5,126.5C 171.811,117.384 163.478,112.718 152.5,112.5C 151.833,127.167 151.167,127.167 150.5,112.5C 147.15,112.335 143.817,112.502 140.5,113C 139.263,113.232 138.263,113.732 137.5,114.5C 135.654,114.222 134.32,114.889 133.5,116.5C 134.785,119.021 135.452,121.687 135.5,124.5C 130.463,124.97 125.463,125.637 120.5,126.5C 120.167,125.833 119.833,125.167 119.5,124.5C 120.663,119.518 121.663,114.518 122.5,109.5C 124.428,106.178 125.928,102.512 127,98.5C 128.541,103.625 130.374,108.625 132.5,113.5C 137.942,111.204 143.608,109.871 149.5,109.5C 149.5,96.1667 149.5,82.8333 149.5,69.5C 139.712,69.4925 130.212,71.1592 121,74.5C 112.945,78.1092 105.445,82.6092 98.5,88C 94.9155,91.0781 91.9155,94.5781 89.5,98.5C 79.2316,110.952 73.2316,125.285 71.5,141.5C 70.8501,141.804 70.1835,142.137 69.5,142.5C 69.9116,126.6 74.9116,112.267 84.5,99.5C 90.1457,93.1877 96.1457,87.1877 102.5,81.5C 110.379,76.4811 118.712,72.3144 127.5,69C 134.725,67.1845 142.059,66.3512 149.5,66.5C 149.5,58.5 149.5,50.5 149.5,42.5C 149.5,40.5 149.5,38.5 149.5,36.5 Z"/></g>
<g><path style="opacity:1" fill="#4f80d5" d="M 122.5,109.5 C 121.504,109.414 120.671,109.748 120,110.5C 119.692,109.692 119.192,109.025 118.5,108.5C 112.985,110.049 107.651,109.549 102.5,107C 105.167,106.667 107.833,106.333 110.5,106C 110,105.5 109.5,105 109,104.5C 106.553,104.961 104.053,105.294 101.5,105.5C 100.692,105.192 100.025,104.692 99.5,104C 95.8333,103.667 92.1667,103.333 88.5,103C 89.4162,102.626 90.2496,102.126 91,101.5C 92.3985,102.051 93.7318,102.384 95,102.5C 95.5,102 96,101.5 96.5,101C 94.559,99.0972 92.2257,98.2639 89.5,98.5C 91.9155,94.5781 94.9155,91.0781 98.5,88C 105.445,82.6092 112.945,78.1092 121,74.5C 130.212,71.1592 139.712,69.4925 149.5,69.5C 149.5,82.8333 149.5,96.1667 149.5,109.5C 143.608,109.871 137.942,111.204 132.5,113.5C 130.374,108.625 128.541,103.625 127,98.5C 125.928,102.512 124.428,106.178 122.5,109.5 Z"/></g>
<g><path style="opacity:1" fill="#4e81db" d="M 189.5,120.5 C 187.116,122.885 184.45,124.885 181.5,126.5C 174.813,116.468 165.479,111.135 153.5,110.5C 153.5,96.8333 153.5,83.1667 153.5,69.5C 168.91,69.4155 182.91,73.7488 195.5,82.5C 195.987,83.4461 196.32,84.4461 196.5,85.5C 194.484,97.2684 192.151,108.935 189.5,120.5 Z"/></g>
<g><path style="opacity:1" fill="#3c5d59" d="M 237.5,74.5 C 239.587,75.5846 240.92,77.2512 241.5,79.5C 239.413,78.4154 238.08,76.7488 237.5,74.5 Z"/></g>
<g><path style="opacity:1" fill="#4a7ed9" d="M 228.5,66.5 C 228.833,66.5 229.167,66.5 229.5,66.5C 230.789,70.4899 233.456,73.1566 237.5,74.5C 238.08,76.7488 239.413,78.4154 241.5,79.5C 241.5,80.1667 241.5,80.8333 241.5,81.5C 235.97,86.6188 229.97,91.2855 223.5,95.5C 225.59,85.8988 227.257,76.2321 228.5,66.5 Z"/></g>
<g><path style="opacity:1" fill="#3f70c9" d="M 107.5,45.5 C 106.398,47.0919 107.065,47.9252 109.5,48C 109.167,48.3333 108.833,48.6667 108.5,49C 105.117,49.8755 101.784,50.8755 98.5,52C 93.0133,56.5758 87.3467,60.9091 81.5,65C 77.6545,69.3449 73.6545,73.5115 69.5,77.5C 66.7151,83.0988 63.3818,88.2654 59.5,93C 59.8333,93.3333 60.1667,93.6667 60.5,94C 58.0391,98.4215 55.7058,102.921 53.5,107.5C 53.8333,108.167 54.1667,108.833 54.5,109.5C 53.5625,113.359 52.2292,117.359 50.5,121.5C 51.3107,124.552 51.3107,127.385 50.5,130C 51.3279,130.915 52.3279,131.581 53.5,132C 51.1088,132.691 51.1088,133.691 53.5,135C 52.9034,136.628 53.2367,138.295 54.5,140C 59.2811,140.862 63.9478,142.029 68.5,143.5C 68.5,144.833 68.5,146.167 68.5,147.5C 58.5,147.5 48.5,147.5 38.5,147.5C 38.3626,140.786 38.8626,134.12 40,127.5C 41.8017,122.299 43.3017,116.966 44.5,111.5C 48.7551,102.653 52.7551,93.6528 56.5,84.5C 56.5,83.8333 56.8333,83.5 57.5,83.5C 65.9676,75.8649 73.9676,67.6983 81.5,59C 87.0862,57.0513 91.7529,53.8846 95.5,49.5C 99.4262,47.969 103.426,46.6357 107.5,45.5 Z"/></g>
<g><path style="opacity:1" fill="#374d64" d="M 241.5,79.5 C 246.331,83.815 249.665,89.1484 251.5,95.5C 247.807,91.1321 244.473,86.4654 241.5,81.5C 241.5,80.8333 241.5,80.1667 241.5,79.5 Z"/></g>
<g><path style="opacity:1" fill="#4065a8" d="M 241.5,81.5 C 244.473,86.4654 247.807,91.1321 251.5,95.5C 251.833,95.5 252.167,95.5 252.5,95.5C 252.402,97.5529 253.069,99.2196 254.5,100.5C 256.585,102.684 257.585,105.351 257.5,108.5C 258.489,112.486 259.489,116.486 260.5,120.5C 262.294,129.31 263.294,138.31 263.5,147.5C 255.472,147.169 247.472,147.502 239.5,148.5C 240.901,149.521 242.235,150.521 243.5,151.5C 240.167,151.5 236.833,151.5 233.5,151.5C 233.5,154.5 233.5,157.5 233.5,160.5C 231.89,157.797 230.89,154.797 230.5,151.5C 218.345,150.505 206.011,150.171 193.5,150.5C 193.5,149.5 193.5,148.5 193.5,147.5C 191.5,147.5 189.5,147.5 187.5,147.5C 187.817,144.428 187.484,141.428 186.5,138.5C 185.833,141.642 185.166,144.642 184.5,147.5C 184.717,140.553 183.051,134.22 179.5,128.5C 179.5,128.167 179.5,127.833 179.5,127.5C 180.492,127.672 181.158,127.338 181.5,126.5C 184.45,124.885 187.116,122.885 189.5,120.5C 188.61,122.782 188.444,125.115 189,127.5C 191.738,128.482 194.572,129.148 197.5,129.5C 198.296,124.184 198.963,118.851 199.5,113.5C 200.605,112.4 201.938,111.733 203.5,111.5C 207.35,118.715 210.017,126.381 211.5,134.5C 206.613,132.76 201.613,131.427 196.5,130.5C 195.672,136.145 195.006,141.812 194.5,147.5C 206.5,147.5 218.5,147.5 230.5,147.5C 230.5,146.167 230.5,144.833 230.5,143.5C 231.15,143.804 231.817,144.137 232.5,144.5C 233.636,140.183 233.636,135.849 232.5,131.5C 230.046,122.611 226.546,114.278 222,106.5C 221.956,103.525 222.123,100.525 222.5,97.5C 222.328,96.5084 222.662,95.8417 223.5,95.5C 229.97,91.2855 235.97,86.6188 241.5,81.5 Z"/></g>
<g><path style="opacity:1" fill="#3a7644" d="M 252.5,95.5 C 253.931,96.7804 254.598,98.4471 254.5,100.5C 253.069,99.2196 252.402,97.5529 252.5,95.5 Z"/></g>
<g><path style="opacity:1" fill="#4979ce" d="M 149.5,36.5 C 149.5,38.5 149.5,40.5 149.5,42.5C 148.258,41.9566 146.925,41.6233 145.5,41.5C 123.085,43.2916 103.418,51.2916 86.5,65.5C 84.585,67.0712 83.585,69.0712 83.5,71.5C 82.448,71.3505 81.448,71.5172 80.5,72C 79.1667,74 77.5,75.6667 75.5,77C 75.8333,77.3333 76.1667,77.6667 76.5,78C 74.2236,79.0302 73.5569,80.5302 74.5,82.5C 73.2081,84.6666 72.3747,86.9999 72,89.5C 71.2496,90.1258 70.4162,90.6258 69.5,91C 70.7111,92.1131 70.7111,93.2798 69.5,94.5C 70.6872,95.5195 71.6872,96.6861 72.5,98C 76.423,98.7927 80.2564,98.626 84,97.5C 84.4643,98.0944 84.631,98.7611 84.5,99.5C 74.9116,112.267 69.9116,126.6 69.5,142.5C 70.1835,142.137 70.8501,141.804 71.5,141.5C 71.5,143.5 71.5,145.5 71.5,147.5C 84.8333,147.5 98.1667,147.5 111.5,147.5C 111.5,148.5 111.5,149.5 111.5,150.5C 97.9895,150.171 84.6562,150.504 71.5,151.5C 70.6805,154.305 70.1805,157.305 70,160.5C 69.8195,157.305 69.3195,154.305 68.5,151.5C 64.1667,151.5 59.8333,151.5 55.5,151.5C 49.8333,151.5 44.1667,151.5 38.5,151.5C 38.5,150.167 38.5,148.833 38.5,147.5C 48.5,147.5 58.5,147.5 68.5,147.5C 68.5,146.167 68.5,144.833 68.5,143.5C 63.9478,142.029 59.2811,140.862 54.5,140C 53.2367,138.295 52.9034,136.628 53.5,135C 51.1088,133.691 51.1088,132.691 53.5,132C 52.3279,131.581 51.3279,130.915 50.5,130C 51.3107,127.385 51.3107,124.552 50.5,121.5C 52.2292,117.359 53.5625,113.359 54.5,109.5C 54.1667,108.833 53.8333,108.167 53.5,107.5C 55.7058,102.921 58.0391,98.4215 60.5,94C 60.1667,93.6667 59.8333,93.3333 59.5,93C 63.3818,88.2654 66.7151,83.0988 69.5,77.5C 73.6545,73.5115 77.6545,69.3449 81.5,65C 87.3467,60.9091 93.0133,56.5758 98.5,52C 101.784,50.8755 105.117,49.8755 108.5,49C 108.833,48.6667 109.167,48.3333 109.5,48C 107.065,47.9252 106.398,47.0919 107.5,45.5C 113.443,42.0979 119.777,39.7645 126.5,38.5C 134.16,37.7673 141.827,37.1007 149.5,36.5 Z"/></g>
<g><path style="opacity:1" fill="#503d56" d="M 56.5,84.5 C 52.7551,93.6528 48.7551,102.653 44.5,111.5C 43.8333,111.833 43.1667,112.167 42.5,112.5C 45.082,102.002 49.7487,92.6691 56.5,84.5 Z"/></g>
<g><path style="opacity:1" fill="#6886b9" d="M 222.5,97.5 C 222.123,100.525 221.956,103.525 222,106.5C 226.546,114.278 230.046,122.611 232.5,131.5C 233.636,135.849 233.636,140.183 232.5,144.5C 231.817,144.137 231.15,143.804 230.5,143.5C 230.5,143.167 230.5,142.833 230.5,142.5C 230.118,130.965 226.951,120.299 221,110.5C 218.712,117.986 216.879,125.653 215.5,133.5C 215.253,134.713 214.586,135.38 213.5,135.5C 213.158,134.662 212.492,134.328 211.5,134.5C 210.017,126.381 207.35,118.715 203.5,111.5C 207.307,107.865 211.307,104.365 215.5,101C 213.675,99.5341 213.175,97.7008 214,95.5C 214.941,97.0614 216.108,98.3947 217.5,99.5C 219.195,98.8256 220.862,98.1589 222.5,97.5 Z"/></g>
<g><path style="opacity:1" fill="#4979ce" d="M 89.5,98.5 C 92.2257,98.2639 94.559,99.0972 96.5,101C 96,101.5 95.5,102 95,102.5C 93.7318,102.384 92.3985,102.051 91,101.5C 90.2496,102.126 89.4162,102.626 88.5,103C 92.1667,103.333 95.8333,103.667 99.5,104C 100.025,104.692 100.692,105.192 101.5,105.5C 104.053,105.294 106.553,104.961 109,104.5C 109.5,105 110,105.5 110.5,106C 107.833,106.333 105.167,106.667 102.5,107C 107.651,109.549 112.985,110.049 118.5,108.5C 119.192,109.025 119.692,109.692 120,110.5C 120.671,109.748 121.504,109.414 122.5,109.5C 121.663,114.518 120.663,119.518 119.5,124.5C 119.833,125.167 120.167,125.833 120.5,126.5C 125.463,125.637 130.463,124.97 135.5,124.5C 135.452,121.687 134.785,119.021 133.5,116.5C 134.32,114.889 135.654,114.222 137.5,114.5C 138.038,117.189 138.705,119.856 139.5,122.5C 138.757,123.182 138.091,123.849 137.5,124.5C 139.551,132.025 142.218,139.359 145.5,146.5C 146.689,147.429 148.022,147.762 149.5,147.5C 149.5,148.833 149.5,150.167 149.5,151.5C 145.318,154.374 142.651,158.374 141.5,163.5C 139.595,159.784 138.261,155.784 137.5,151.5C 132.167,151.5 126.833,151.5 121.5,151.5C 121.108,155.342 120.108,159.009 118.5,162.5C 115.341,159.233 114.008,155.233 114.5,150.5C 117.167,150.5 119.833,150.5 122.5,150.5C 122.5,149.5 122.5,148.5 122.5,147.5C 118.833,147.5 115.167,147.5 111.5,147.5C 111.623,140.581 113.29,134.081 116.5,128C 100.688,129.77 85.6881,134.27 71.5,141.5C 73.2316,125.285 79.2316,110.952 89.5,98.5 Z"/></g>
<g><path style="opacity:1" fill="#375952" d="M 257.5,108.5 C 260.851,114.185 262.851,120.518 263.5,127.5C 261.98,125.412 260.98,123.078 260.5,120.5C 259.489,116.486 258.489,112.486 257.5,108.5 Z"/></g>
<g><path style="opacity:1" fill="#6785b8" d="M 199.5,113.5 C 198.963,118.851 198.296,124.184 197.5,129.5C 194.572,129.148 191.738,128.482 189,127.5C 188.444,125.115 188.61,122.782 189.5,120.5C 192.978,118.294 196.311,115.961 199.5,113.5 Z"/></g>
<g><path style="opacity:1" fill="#672833" d="M 42.5,112.5 C 42.7406,114.898 42.0739,116.898 40.5,118.5C 40.2594,116.102 40.9261,114.102 42.5,112.5 Z"/></g>
<g><path style="opacity:1" fill="#4167a8" d="M 230.5,142.5 C 225.87,140.79 221.37,138.79 217,136.5C 215.078,138.105 213.911,137.772 213.5,135.5C 214.586,135.38 215.253,134.713 215.5,133.5C 216.879,125.653 218.712,117.986 221,110.5C 226.951,120.299 230.118,130.965 230.5,142.5 Z"/></g>
<g><path style="opacity:1" fill="#4b7ed9" d="M 177.5,126.5 C 169.567,125.294 161.567,124.627 153.5,124.5C 153.334,131.175 153.5,137.842 154,144.5C 155.037,139.045 157.037,134.045 160,129.5C 161.077,132.899 162.244,136.233 163.5,139.5C 160.312,141.932 157.312,144.599 154.5,147.5C 152.833,147.5 151.167,147.5 149.5,147.5C 149.5,139.833 149.5,132.167 149.5,124.5C 145.5,124.5 141.5,124.5 137.5,124.5C 138.091,123.849 138.757,123.182 139.5,122.5C 138.705,119.856 138.038,117.189 137.5,114.5C 138.263,113.732 139.263,113.232 140.5,113C 143.817,112.502 147.15,112.335 150.5,112.5C 151.167,127.167 151.833,127.167 152.5,112.5C 163.478,112.718 171.811,117.384 177.5,126.5 Z"/></g>
<g><path style="opacity:1" fill="#561210" d="M 23.5,119.5 C 23.4613,123.733 22.7947,127.733 21.5,131.5C 21.3442,127.236 22.0109,123.236 23.5,119.5 Z"/></g>
<g><path style="opacity:1" fill="#1d59ca" d="M 137.5,124.5 C 141.5,124.5 145.5,124.5 149.5,124.5C 149.5,132.167 149.5,139.833 149.5,147.5C 148.022,147.762 146.689,147.429 145.5,146.5C 142.218,139.359 139.551,132.025 137.5,124.5 Z"/></g>
<g><path style="opacity:1" fill="#1f5ed4" d="M 177.5,126.5 C 178.492,126.328 179.158,126.662 179.5,127.5C 179.5,127.833 179.5,128.167 179.5,128.5C 174.284,131.934 169.284,135.601 164.5,139.5C 164.167,139.5 163.833,139.5 163.5,139.5C 162.244,136.233 161.077,132.899 160,129.5C 157.037,134.045 155.037,139.045 154,144.5C 153.5,137.842 153.334,131.175 153.5,124.5C 161.567,124.627 169.567,125.294 177.5,126.5 Z"/></g>
<g><path style="opacity:1" fill="#174497" d="M 211.5,134.5 C 212.492,134.328 213.158,134.662 213.5,135.5C 213.911,137.772 215.078,138.105 217,136.5C 221.37,138.79 225.87,140.79 230.5,142.5C 230.5,142.833 230.5,143.167 230.5,143.5C 230.5,144.833 230.5,146.167 230.5,147.5C 218.5,147.5 206.5,147.5 194.5,147.5C 195.006,141.812 195.672,136.145 196.5,130.5C 201.613,131.427 206.613,132.76 211.5,134.5 Z"/></g>
<g><path style="opacity:1" fill="#164396" d="M 179.5,128.5 C 183.051,134.22 184.717,140.553 184.5,147.5C 178.833,147.5 173.167,147.5 167.5,147.5C 167.167,147.5 166.833,147.5 166.5,147.5C 166.416,144.673 165.75,142.006 164.5,139.5C 169.284,135.601 174.284,131.934 179.5,128.5 Z"/></g>
<g><path style="opacity:1" fill="#1d56c1" d="M 111.5,147.5 C 98.1667,147.5 84.8333,147.5 71.5,147.5C 71.5,145.5 71.5,143.5 71.5,141.5C 85.6881,134.27 100.688,129.77 116.5,128C 113.29,134.081 111.623,140.581 111.5,147.5 Z"/></g>
<g><path style="opacity:1" fill="#4167a9" d="M 163.5,139.5 C 163.833,139.5 164.167,139.5 164.5,139.5C 165.75,142.006 166.416,144.673 166.5,147.5C 162.5,147.5 158.5,147.5 154.5,147.5C 157.312,144.599 160.312,141.932 163.5,139.5 Z"/></g>
<g><path style="opacity:1" fill="#2057bf" d="M 122.5,147.5 C 124.784,142.052 126.617,136.385 128,130.5C 130.772,135.588 132.939,140.921 134.5,146.5C 130.555,147.491 126.555,147.824 122.5,147.5 Z"/></g>
<g><path style="opacity:1" fill="#389631" d="M 279.5,125.5 C 281.022,132.939 281.689,140.606 281.5,148.5C 281.499,154.011 281.166,159.344 280.5,164.5C 280.603,151.485 280.27,138.485 279.5,125.5 Z"/></g>
<g><path style="opacity:1" fill="#6f93d3" d="M 111.5,147.5 C 115.167,147.5 118.833,147.5 122.5,147.5C 122.5,148.5 122.5,149.5 122.5,150.5C 119.833,150.5 117.167,150.5 114.5,150.5C 114.008,155.233 115.341,159.233 118.5,162.5C 118.5,163.5 118.5,164.5 118.5,165.5C 117.185,167.976 116.018,167.642 115,164.5C 113.506,159.776 112.339,155.109 111.5,150.5C 111.5,149.5 111.5,148.5 111.5,147.5 Z"/></g>
<g><path style="opacity:1" fill="#6181b9" d="M 263.5,147.5 C 263.5,148.833 263.5,150.167 263.5,151.5C 256.833,151.5 250.167,151.5 243.5,151.5C 242.235,150.521 240.901,149.521 239.5,148.5C 247.472,147.502 255.472,147.169 263.5,147.5 Z"/></g>
<g><path style="opacity:1" fill="#2b56a3" d="M 193.5,151.5 C 193.5,151.167 193.5,150.833 193.5,150.5C 206.011,150.171 218.345,150.505 230.5,151.5C 230.647,156.214 230.314,160.881 229.5,165.5C 228.5,165.5 227.5,165.5 226.5,165.5C 226.5,160.833 226.5,156.167 226.5,151.5C 225.167,151.5 223.833,151.5 222.5,151.5C 221.833,163.5 221.167,163.5 220.5,151.5C 219.5,151.5 218.5,151.5 217.5,151.5C 217.5,156.167 217.5,160.833 217.5,165.5C 216.5,165.5 215.5,165.5 214.5,165.5C 214.5,160.833 214.5,156.167 214.5,151.5C 213.5,151.5 212.5,151.5 211.5,151.5C 211.5,154.5 211.5,157.5 211.5,160.5C 210.5,160.5 209.5,160.5 208.5,160.5C 208.817,157.428 208.484,154.428 207.5,151.5C 206.507,156.12 206.173,160.786 206.5,165.5C 205.167,165.5 203.833,165.5 202.5,165.5C 202.5,160.833 202.5,156.167 202.5,151.5C 201.5,151.5 200.5,151.5 199.5,151.5C 199.5,154.5 199.5,157.5 199.5,160.5C 198.5,160.5 197.5,160.5 196.5,160.5C 196.5,157.5 196.5,154.5 196.5,151.5C 195.5,151.5 194.5,151.5 193.5,151.5 Z"/></g>
<g><path style="opacity:1" fill="#396bc3" d="M 38.5,151.5 C 44.1667,151.5 49.8333,151.5 55.5,151.5C 50.521,155.812 45.8544,160.479 41.5,165.5C 40.6906,167.071 40.3573,168.738 40.5,170.5C 38.8228,164.416 38.1561,158.082 38.5,151.5 Z"/></g>
<g><path style="opacity:1" fill="#486eb2" d="M 167.5,147.5 C 173.167,147.5 178.833,147.5 184.5,147.5C 184.465,154.374 182.798,160.707 179.5,166.5C 179.5,161.5 179.5,156.5 179.5,151.5C 178.5,151.5 177.5,151.5 176.5,151.5C 176.5,154.5 176.5,157.5 176.5,160.5C 175.5,160.5 174.5,160.5 173.5,160.5C 173.5,157.5 173.5,154.5 173.5,151.5C 172.5,151.5 171.5,151.5 170.5,151.5C 170.337,153.857 170.503,156.19 171,158.5C 173.118,162.349 174.952,166.349 176.5,170.5C 177.735,169.66 178.735,168.66 179.5,167.5C 179.351,168.552 179.517,169.552 180,170.5C 183.745,164.612 186.245,158.279 187.5,151.5C 189.5,151.5 191.5,151.5 193.5,151.5C 190.167,165.832 186.833,180.166 183.5,194.5C 184.325,195.386 185.325,195.719 186.5,195.5C 187.045,191.828 187.378,192.162 187.5,196.5C 186.167,196.5 184.833,196.5 183.5,196.5C 183.5,197.833 183.5,199.167 183.5,200.5C 188.794,200.682 188.794,201.182 183.5,202C 183.833,202.333 184.167,202.667 184.5,203C 182.624,203.918 181.624,205.418 181.5,207.5C 179.074,204.614 177.407,201.28 176.5,197.5C 175.5,197.5 174.5,197.5 173.5,197.5C 173.665,194.15 173.498,190.817 173,187.5C 171.097,185.559 170.264,183.226 170.5,180.5C 164.862,182.325 159.196,183.992 153.5,185.5C 153.5,184.5 153.5,183.5 153.5,182.5C 159.057,182.202 164.057,180.535 168.5,177.5C 165.371,170.941 162.537,164.275 160,157.5C 157.519,162.784 155.352,168.117 153.5,173.5C 153.5,165.833 153.5,158.167 153.5,150.5C 158.167,150.5 162.833,150.5 167.5,150.5C 167.5,149.5 167.5,148.5 167.5,147.5 Z"/></g>
<g><path style="opacity:1" fill="#708ec0" d="M 193.5,150.5 C 193.5,150.833 193.5,151.167 193.5,151.5C 191.5,151.5 189.5,151.5 187.5,151.5C 186.245,158.279 183.745,164.612 180,170.5C 179.517,169.552 179.351,168.552 179.5,167.5C 179.5,167.167 179.5,166.833 179.5,166.5C 182.798,160.707 184.465,154.374 184.5,147.5C 185.166,144.642 185.833,141.642 186.5,138.5C 187.484,141.428 187.817,144.428 187.5,147.5C 189.5,147.5 191.5,147.5 193.5,147.5C 193.5,148.5 193.5,149.5 193.5,150.5 Z"/></g>
<g><path style="opacity:1" fill="#6889c3" d="M 149.5,147.5 C 151.167,147.5 152.833,147.5 154.5,147.5C 158.5,147.5 162.5,147.5 166.5,147.5C 166.833,147.5 167.167,147.5 167.5,147.5C 167.5,148.5 167.5,149.5 167.5,150.5C 162.833,150.5 158.167,150.5 153.5,150.5C 153.5,158.167 153.5,165.833 153.5,173.5C 152.449,176.656 152.449,179.656 153.5,182.5C 153.5,183.5 153.5,184.5 153.5,185.5C 152.167,185.5 150.833,185.5 149.5,185.5C 149.167,185.5 148.833,185.5 148.5,185.5C 149.434,174.205 149.768,162.871 149.5,151.5C 149.5,150.167 149.5,148.833 149.5,147.5 Z"/></g>
<g><path style="opacity:1" fill="#375fa6" d="M 243.5,151.5 C 250.167,151.5 256.833,151.5 263.5,151.5C 263.676,156.88 263.342,162.213 262.5,167.5C 261.127,167.657 259.793,167.49 258.5,167C 257.5,165.333 256.5,163.667 255.5,162C 254.552,161.517 253.552,161.351 252.5,161.5C 252.5,162.5 252.5,163.5 252.5,164.5C 251.5,164.5 250.5,164.5 249.5,164.5C 249.817,161.428 249.484,158.428 248.5,155.5C 247.548,157.045 247.215,158.712 247.5,160.5C 246.167,160.5 244.833,160.5 243.5,160.5C 243.5,157.5 243.5,154.5 243.5,151.5 Z"/></g>
<g><path style="opacity:1" fill="#3b923e" d="M 265.5,144.5 C 266.719,151.217 266.386,157.883 264.5,164.5C 264.954,157.841 265.287,151.174 265.5,144.5 Z"/></g>
<g><path style="opacity:1" fill="#4671bf" d="M 111.5,150.5 C 112.339,155.109 113.506,159.776 115,164.5C 116.018,167.642 117.185,167.976 118.5,165.5C 125.231,176.037 134.897,181.703 147.5,182.5C 145.136,176.286 143.136,169.952 141.5,163.5C 142.651,158.374 145.318,154.374 149.5,151.5C 149.768,162.871 149.434,174.205 148.5,185.5C 135.376,184.774 125.042,179.107 117.5,168.5C 113.658,183.535 109.658,198.535 105.5,213.5C 106.01,215.088 107.01,216.255 108.5,217C 121.253,224.105 134.92,227.938 149.5,228.5C 149.5,214.167 149.5,199.833 149.5,185.5C 150.833,185.5 152.167,185.5 153.5,185.5C 153.5,199.833 153.5,214.167 153.5,228.5C 165.206,228.99 176.206,226.49 186.5,221C 185.289,220.107 185.289,219.274 186.5,218.5C 187.086,218.709 187.586,219.043 188,219.5C 194.916,216.405 200.416,212.405 204.5,207.5C 205.815,206.524 207.148,205.524 208.5,204.5C 207.975,203.808 207.308,203.308 206.5,203C 208.218,202.654 209.885,202.154 211.5,201.5C 213.288,199.424 214.954,197.257 216.5,195C 214.865,194.46 213.532,194.96 212.5,196.5C 211.167,195.167 211.167,193.833 212.5,192.5C 213.293,192.931 214.127,193.265 215,193.5C 216.3,192.293 217.8,191.626 219.5,191.5C 223.861,183.275 227.194,174.608 229.5,165.5C 230.314,160.881 230.647,156.214 230.5,151.5C 230.89,154.797 231.89,157.797 233.5,160.5C 229.865,179.778 221.032,196.111 207,209.5C 206.802,211.382 206.302,213.048 205.5,214.5C 204.778,214.082 204.278,213.416 204,212.5C 201.555,213.977 199.388,215.81 197.5,218C 198.711,218.893 198.711,219.726 197.5,220.5C 196.264,219.754 194.93,219.421 193.5,219.5C 193.657,220.873 193.49,222.207 193,223.5C 192.612,222.572 191.945,221.905 191,221.5C 179.713,227.621 167.213,230.955 153.5,231.5C 153.5,241.167 153.5,250.833 153.5,260.5C 152.432,261.434 151.099,261.768 149.5,261.5C 149.5,251.5 149.5,241.5 149.5,231.5C 120.218,230.116 97.3846,217.449 81,193.5C 74.9735,202.376 69.8068,211.876 65.5,222C 65.9891,223.138 66.3225,224.305 66.5,225.5C 64.8333,224.167 63.1667,222.833 61.5,221.5C 60.2141,218.883 58.5475,216.55 56.5,214.5C 56.5,214.167 56.5,213.833 56.5,213.5C 57.5,213.5 58.5,213.5 59.5,213.5C 64.0767,202.511 69.0767,191.677 74.5,181C 73.3755,176.65 71.8755,172.484 70,168.5C 68.971,162.877 68.471,157.21 68.5,151.5C 69.3195,154.305 69.8195,157.305 70,160.5C 70.1805,157.305 70.6805,154.305 71.5,151.5C 84.6562,150.504 97.9895,150.171 111.5,150.5 Z"/></g>
<g><path style="opacity:1" fill="#1b489e" d="M 193.5,151.5 C 194.5,151.5 195.5,151.5 196.5,151.5C 196.5,154.5 196.5,157.5 196.5,160.5C 197.5,160.5 198.5,160.5 199.5,160.5C 199.5,157.5 199.5,154.5 199.5,151.5C 200.5,151.5 201.5,151.5 202.5,151.5C 202.5,156.167 202.5,160.833 202.5,165.5C 203.833,165.5 205.167,165.5 206.5,165.5C 206.173,160.786 206.507,156.12 207.5,151.5C 208.484,154.428 208.817,157.428 208.5,160.5C 209.5,160.5 210.5,160.5 211.5,160.5C 211.5,157.5 211.5,154.5 211.5,151.5C 212.5,151.5 213.5,151.5 214.5,151.5C 214.5,156.167 214.5,160.833 214.5,165.5C 215.5,165.5 216.5,165.5 217.5,165.5C 217.5,160.833 217.5,156.167 217.5,151.5C 218.5,151.5 219.5,151.5 220.5,151.5C 221.167,163.5 221.833,163.5 222.5,151.5C 223.833,151.5 225.167,151.5 226.5,151.5C 226.5,156.167 226.5,160.833 226.5,165.5C 227.5,165.5 228.5,165.5 229.5,165.5C 227.194,174.608 223.861,183.275 219.5,191.5C 217.8,191.626 216.3,192.293 215,193.5C 214.127,193.265 213.293,192.931 212.5,192.5C 211.167,193.833 211.167,195.167 212.5,196.5C 213.532,194.96 214.865,194.46 216.5,195C 214.954,197.257 213.288,199.424 211.5,201.5C 209.885,202.154 208.218,202.654 206.5,203C 207.308,203.308 207.975,203.808 208.5,204.5C 207.148,205.524 205.815,206.524 204.5,207.5C 202.306,206.616 199.972,205.616 197.5,204.5C 195.467,206.441 193.3,206.775 191,205.5C 187.757,206.011 184.591,206.678 181.5,207.5C 181.624,205.418 182.624,203.918 184.5,203C 184.167,202.667 183.833,202.333 183.5,202C 188.794,201.182 188.794,200.682 183.5,200.5C 183.5,199.167 183.5,197.833 183.5,196.5C 184.833,196.5 186.167,196.5 187.5,196.5C 187.378,192.162 187.045,191.828 186.5,195.5C 185.325,195.719 184.325,195.386 183.5,194.5C 186.833,180.166 190.167,165.832 193.5,151.5 Z"/></g>
<g><path style="opacity:1" fill="#1a4aa4" d="M 153.5,182.5 C 152.449,179.656 152.449,176.656 153.5,173.5C 155.352,168.117 157.519,162.784 160,157.5C 162.537,164.275 165.371,170.941 168.5,177.5C 164.057,180.535 159.057,182.202 153.5,182.5 Z"/></g>
<g><path style="opacity:1" fill="#1b52b9" d="M 71.5,151.5 C 84.5,151.5 97.5,151.5 110.5,151.5C 108.328,165.845 104.828,179.845 100,193.5C 94.1667,186.333 88.3333,179.167 82.5,172C 81.365,171.251 80.365,171.417 79.5,172.5C 78.759,176.185 77.259,176.851 75,174.5C 72.7495,166.997 71.5828,159.33 71.5,151.5 Z"/></g>
<g><path style="opacity:1" fill="#1b50b3" d="M 141.5,163.5 C 143.136,169.952 145.136,176.286 147.5,182.5C 134.897,181.703 125.231,176.037 118.5,165.5C 118.5,164.5 118.5,163.5 118.5,162.5C 120.108,159.009 121.108,155.342 121.5,151.5C 126.833,151.5 132.167,151.5 137.5,151.5C 138.261,155.784 139.595,159.784 141.5,163.5 Z"/></g>
<g><path style="opacity:1" fill="#19479a" d="M 179.5,166.5 C 179.5,166.833 179.5,167.167 179.5,167.5C 178.735,168.66 177.735,169.66 176.5,170.5C 174.952,166.349 173.118,162.349 171,158.5C 170.503,156.19 170.337,153.857 170.5,151.5C 171.5,151.5 172.5,151.5 173.5,151.5C 173.5,154.5 173.5,157.5 173.5,160.5C 174.5,160.5 175.5,160.5 176.5,160.5C 176.5,157.5 176.5,154.5 176.5,151.5C 177.5,151.5 178.5,151.5 179.5,151.5C 179.5,156.5 179.5,161.5 179.5,166.5 Z"/></g>
<g><path style="opacity:1" fill="#1a4eaf" d="M 148.5,185.5 C 148.833,185.5 149.167,185.5 149.5,185.5C 149.5,199.833 149.5,214.167 149.5,228.5C 134.92,227.938 121.253,224.105 108.5,217C 107.01,216.255 106.01,215.088 105.5,213.5C 109.658,198.535 113.658,183.535 117.5,168.5C 125.042,179.107 135.376,184.774 148.5,185.5 Z"/></g>
<g><path style="opacity:1" fill="#40ac3b" d="M 264.5,165.5 C 264.884,169.489 264.217,173.155 262.5,176.5C 262.808,172.64 263.475,168.974 264.5,165.5 Z"/></g>
<g><path style="opacity:1" fill="#3a4062" d="M 44.5,111.5 C 43.3017,116.966 41.8017,122.299 40,127.5C 38.8626,134.12 38.3626,140.786 38.5,147.5C 38.5,148.833 38.5,150.167 38.5,151.5C 38.1561,158.082 38.8228,164.416 40.5,170.5C 40.3975,173.219 40.7308,175.885 41.5,178.5C 43.495,182.651 44.995,186.985 46,191.5C 49.452,198.018 52.6186,204.685 55.5,211.5C 55.1667,211.5 54.8333,211.5 54.5,211.5C 54.1667,210.833 53.8333,210.167 53.5,209.5C 51.9138,207.33 50.5804,204.996 49.5,202.5C 49.573,200.973 48.9063,199.973 47.5,199.5C 35.9916,173.264 33.6583,146.264 40.5,118.5C 42.0739,116.898 42.7406,114.898 42.5,112.5C 43.1667,112.167 43.8333,111.833 44.5,111.5 Z"/></g>
<g><path style="opacity:1" fill="#1b52b9" d="M 55.5,151.5 C 59.8333,151.5 64.1667,151.5 68.5,151.5C 68.471,157.21 68.971,162.877 70,168.5C 71.8755,172.484 73.3755,176.65 74.5,181C 69.0767,191.677 64.0767,202.511 59.5,213.5C 58.5,213.5 57.5,213.5 56.5,213.5C 56.1667,212.833 55.8333,212.167 55.5,211.5C 52.6186,204.685 49.452,198.018 46,191.5C 44.995,186.985 43.495,182.651 41.5,178.5C 40.7308,175.885 40.3975,173.219 40.5,170.5C 40.3573,168.738 40.6906,167.071 41.5,165.5C 45.8544,160.479 50.521,155.812 55.5,151.5 Z"/></g>
<g><path style="opacity:1" fill="#1a479c" d="M 243.5,151.5 C 243.5,154.5 243.5,157.5 243.5,160.5C 244.833,160.5 246.167,160.5 247.5,160.5C 247.215,158.712 247.548,157.045 248.5,155.5C 249.484,158.428 249.817,161.428 249.5,164.5C 250.5,164.5 251.5,164.5 252.5,164.5C 252.5,163.5 252.5,162.5 252.5,161.5C 253.552,161.351 254.552,161.517 255.5,162C 256.5,163.667 257.5,165.333 258.5,167C 259.793,167.49 261.127,167.657 262.5,167.5C 260.444,174.595 258.444,181.762 256.5,189C 253.145,195.235 250.478,201.735 248.5,208.5C 244.72,210.697 242.386,214.03 241.5,218.5C 239.748,220.246 238.415,222.246 237.5,224.5C 236.272,225.306 235.272,226.306 234.5,227.5C 231.833,229.5 229.5,231.833 227.5,234.5C 225.343,236.412 223.009,238.079 220.5,239.5C 219.5,239.5 218.5,239.5 217.5,239.5C 217.389,238.883 217.056,238.383 216.5,238C 218.104,236.763 219.771,235.597 221.5,234.5C 215.583,227.745 210.249,221.078 205.5,214.5C 206.302,213.048 206.802,211.382 207,209.5C 221.032,196.111 229.865,179.778 233.5,160.5C 233.5,157.5 233.5,154.5 233.5,151.5C 236.833,151.5 240.167,151.5 243.5,151.5 Z"/></g>
<g><path style="opacity:1" fill="#1b4ba7" d="M 181.5,207.5 C 184.591,206.678 187.757,206.011 191,205.5C 193.3,206.775 195.467,206.441 197.5,204.5C 199.972,205.616 202.306,206.616 204.5,207.5C 200.416,212.405 194.916,216.405 188,219.5C 187.586,219.043 187.086,218.709 186.5,218.5C 185.289,219.274 185.289,220.107 186.5,221C 176.206,226.49 165.206,228.99 153.5,228.5C 153.5,214.167 153.5,199.833 153.5,185.5C 159.196,183.992 164.862,182.325 170.5,180.5C 170.264,183.226 171.097,185.559 173,187.5C 173.498,190.817 173.665,194.15 173.5,197.5C 174.5,197.5 175.5,197.5 176.5,197.5C 177.407,201.28 179.074,204.614 181.5,207.5 Z"/></g>
<g><path style="opacity:1" fill="#367628" d="M 274.5,189.5 C 274.59,192.152 273.924,194.485 272.5,196.5C 272.41,193.848 273.076,191.515 274.5,189.5 Z"/></g>
<g><path style="opacity:1" fill="#283f64" d="M 260.5,120.5 C 260.98,123.078 261.98,125.412 263.5,127.5C 264.54,133.116 265.207,138.783 265.5,144.5C 265.287,151.174 264.954,157.841 264.5,164.5C 264.5,164.833 264.5,165.167 264.5,165.5C 263.475,168.974 262.808,172.64 262.5,176.5C 259.444,187.938 254.777,198.605 248.5,208.5C 250.478,201.735 253.145,195.235 256.5,189C 258.444,181.762 260.444,174.595 262.5,167.5C 263.342,162.213 263.676,156.88 263.5,151.5C 263.5,150.167 263.5,148.833 263.5,147.5C 263.294,138.31 262.294,129.31 260.5,120.5 Z"/></g>
<g><path style="opacity:1" fill="#7f1318" d="M 47.5,199.5 C 48.9063,199.973 49.573,200.973 49.5,202.5C 48.0937,202.027 47.427,201.027 47.5,199.5 Z"/></g>
<g><path style="opacity:1" fill="#1a4eb0" d="M 149.5,261.5 C 146.5,261.5 143.5,261.5 140.5,261.5C 138.833,261.5 137.167,261.5 135.5,261.5C 135.389,260.883 135.056,260.383 134.5,260C 126.426,258.814 118.426,257.314 110.5,255.5C 105.453,252.406 100.119,249.573 94.5,247C 91.4696,244.628 88.4696,242.295 85.5,240C 84.2068,239.51 82.8734,239.343 81.5,239.5C 81.5858,238.504 81.2524,237.671 80.5,237C 78.5952,235.579 76.5952,234.412 74.5,233.5C 72.8054,229.805 70.1387,227.139 66.5,225.5C 66.3225,224.305 65.9891,223.138 65.5,222C 69.8068,211.876 74.9735,202.376 81,193.5C 97.3846,217.449 120.218,230.116 149.5,231.5C 149.5,241.5 149.5,251.5 149.5,261.5 Z"/></g>
<g><path style="opacity:1" fill="#36812a" d="M 268.5,204.5 C 268.598,206.553 267.931,208.22 266.5,209.5C 266.402,207.447 267.069,205.78 268.5,204.5 Z"/></g>
<g><path style="opacity:1" fill="#f6d101" d="M 53.5,209.5 C 53.8333,210.167 54.1667,210.833 54.5,211.5C 54.427,213.027 55.0937,214.027 56.5,214.5C 58.5475,216.55 60.2141,218.883 61.5,221.5C 64.5,226.5 68.5,230.5 73.5,233.5C 73.8333,233.5 74.1667,233.5 74.5,233.5C 76.2193,236.219 78.5526,238.219 81.5,239.5C 83.7703,241.975 86.437,243.975 89.5,245.5C 89.9731,246.906 90.9731,247.573 92.5,247.5C 93.2905,248.401 94.2905,249.068 95.5,249.5C 95.9731,250.906 96.9731,251.573 98.5,251.5C 100.509,253.065 102.843,254.065 105.5,254.5C 107.042,255.301 108.708,255.634 110.5,255.5C 111.167,256.167 111.833,256.833 112.5,257.5C 115.505,259.277 118.838,260.277 122.5,260.5C 123.167,260.5 123.833,260.5 124.5,260.5C 126.599,261.612 128.933,262.279 131.5,262.5C 131.918,263.222 132.584,263.722 133.5,264C 145.167,264.667 156.833,264.667 168.5,264C 169.056,263.617 169.389,263.117 169.5,262.5C 170.167,262.5 170.5,262.167 170.5,261.5C 177.987,260.896 184.987,258.896 191.5,255.5C 193.5,255.167 195.5,254.833 197.5,254.5C 199.674,254.25 201.341,253.25 202.5,251.5C 205.009,250.079 207.343,248.412 209.5,246.5C 210.167,246.167 210.833,245.833 211.5,245.5C 215.025,244.241 218.025,242.241 220.5,239.5C 223.009,238.079 225.343,236.412 227.5,234.5C 230.833,233.167 233.167,230.833 234.5,227.5C 235.272,226.306 236.272,225.306 237.5,224.5C 239.914,223.089 241.581,221.089 242.5,218.5C 244.025,215.437 246.025,212.77 248.5,210.5C 252.847,212.672 256.847,215.338 260.5,218.5C 247.329,239.332 229.662,255.332 207.5,266.5C 205.447,266.402 203.78,267.069 202.5,268.5C 200.249,269.015 198.249,270.015 196.5,271.5C 191.191,272.076 186.191,273.409 181.5,275.5C 180.292,276.234 178.959,276.567 177.5,276.5C 162.908,278.302 148.242,278.969 133.5,278.5C 126.476,277.328 119.476,275.828 112.5,274C 98.5301,269.849 85.8634,263.349 74.5,254.5C 74.0269,253.094 73.0269,252.427 71.5,252.5C 58.6291,242.969 48.2957,231.303 40.5,217.5C 45.0006,215.084 49.3339,212.417 53.5,209.5 Z"/></g>
<g><path style="opacity:1" fill="#867315" d="M 54.5,211.5 C 54.8333,211.5 55.1667,211.5 55.5,211.5C 55.8333,212.167 56.1667,212.833 56.5,213.5C 56.5,213.833 56.5,214.167 56.5,214.5C 55.0937,214.027 54.427,213.027 54.5,211.5 Z"/></g>
<g><path style="opacity:1" fill="#293656" d="M 248.5,208.5 C 248.5,209.167 248.5,209.833 248.5,210.5C 246.025,212.77 244.025,215.437 242.5,218.5C 242.167,218.5 241.833,218.5 241.5,218.5C 242.386,214.03 244.72,210.697 248.5,208.5 Z"/></g>
<g><path style="opacity:1" fill="#326724" d="M 265.5,211.5 C 265.573,213.027 264.906,214.027 263.5,214.5C 263.427,212.973 264.094,211.973 265.5,211.5 Z"/></g>
<g><path style="opacity:1" fill="#1a4aa6" d="M 205.5,214.5 C 210.249,221.078 215.583,227.745 221.5,234.5C 219.771,235.597 218.104,236.763 216.5,238C 217.056,238.383 217.389,238.883 217.5,239.5C 215.467,241.507 213.467,243.507 211.5,245.5C 210.833,245.833 210.167,246.167 209.5,246.5C 207.94,246.519 206.44,246.852 205,247.5C 200.345,250.087 195.845,252.753 191.5,255.5C 179.062,258.848 166.396,260.515 153.5,260.5C 153.5,250.833 153.5,241.167 153.5,231.5C 167.213,230.955 179.713,227.621 191,221.5C 191.945,221.905 192.612,222.572 193,223.5C 193.49,222.207 193.657,220.873 193.5,219.5C 194.93,219.421 196.264,219.754 197.5,220.5C 198.711,219.726 198.711,218.893 197.5,218C 199.388,215.81 201.555,213.977 204,212.5C 204.278,213.416 204.778,214.082 205.5,214.5 Z"/></g>
<g><path style="opacity:1" fill="#95821d" d="M 61.5,221.5 C 63.1667,222.833 64.8333,224.167 66.5,225.5C 68.8333,228.167 71.1667,230.833 73.5,233.5C 68.5,230.5 64.5,226.5 61.5,221.5 Z"/></g>
<g><path style="opacity:1" fill="#82721f" d="M 241.5,218.5 C 241.833,218.5 242.167,218.5 242.5,218.5C 241.581,221.089 239.914,223.089 237.5,224.5C 238.415,222.246 239.748,220.246 241.5,218.5 Z"/></g>
<g><path style="opacity:1" fill="#264176" d="M 66.5,225.5 C 70.1387,227.139 72.8054,229.805 74.5,233.5C 74.1667,233.5 73.8333,233.5 73.5,233.5C 71.1667,230.833 68.8333,228.167 66.5,225.5 Z"/></g>
<g><path style="opacity:1" fill="#a08b1d" d="M 234.5,227.5 C 233.167,230.833 230.833,233.167 227.5,234.5C 229.5,231.833 231.833,229.5 234.5,227.5 Z"/></g>
<g><path style="opacity:1" fill="#2b3a5a" d="M 74.5,233.5 C 76.5952,234.412 78.5952,235.579 80.5,237C 81.2524,237.671 81.5858,238.504 81.5,239.5C 78.5526,238.219 76.2193,236.219 74.5,233.5 Z"/></g>
<g><path style="opacity:1" fill="#25355a" d="M 217.5,239.5 C 218.5,239.5 219.5,239.5 220.5,239.5C 218.025,242.241 215.025,244.241 211.5,245.5C 213.467,243.507 215.467,241.507 217.5,239.5 Z"/></g>
<g><path style="opacity:1" fill="#514f31" d="M 89.5,245.5 C 91.0269,245.427 92.0269,246.094 92.5,247.5C 90.9731,247.573 89.9731,246.906 89.5,245.5 Z"/></g>
<g><path style="opacity:1" fill="#877518" d="M 95.5,249.5 C 97.0269,249.427 98.0269,250.094 98.5,251.5C 96.9731,251.573 95.9731,250.906 95.5,249.5 Z"/></g>
<g><path style="opacity:1" fill="#273963" d="M 209.5,246.5 C 207.343,248.412 205.009,250.079 202.5,251.5C 200.152,251.592 198.486,252.592 197.5,254.5C 195.5,254.833 193.5,255.167 191.5,255.5C 195.845,252.753 200.345,250.087 205,247.5C 206.44,246.852 207.94,246.519 209.5,246.5 Z"/></g>
<g><path style="opacity:1" fill="#2d406c" d="M 81.5,239.5 C 82.8734,239.343 84.2068,239.51 85.5,240C 88.4696,242.295 91.4696,244.628 94.5,247C 100.119,249.573 105.453,252.406 110.5,255.5C 108.708,255.634 107.042,255.301 105.5,254.5C 103.68,252.552 101.346,251.552 98.5,251.5C 98.0269,250.094 97.0269,249.427 95.5,249.5C 94.2905,249.068 93.2905,248.401 92.5,247.5C 92.0269,246.094 91.0269,245.427 89.5,245.5C 86.437,243.975 83.7703,241.975 81.5,239.5 Z"/></g>
<g><path style="opacity:1" fill="#99841a" d="M 202.5,251.5 C 201.341,253.25 199.674,254.25 197.5,254.5C 198.486,252.592 200.152,251.592 202.5,251.5 Z"/></g>
<g><path style="opacity:1" fill="#7c690a" d="M 71.5,252.5 C 73.0269,252.427 74.0269,253.094 74.5,254.5C 72.9731,254.573 71.9731,253.906 71.5,252.5 Z"/></g>
<g><path style="opacity:1" fill="#6b6127" d="M 98.5,251.5 C 101.346,251.552 103.68,252.552 105.5,254.5C 102.843,254.065 100.509,253.065 98.5,251.5 Z"/></g>
<g><path style="opacity:1" fill="#907e17" d="M 112.5,257.5 C 116.162,257.723 119.495,258.723 122.5,260.5C 118.838,260.277 115.505,259.277 112.5,257.5 Z"/></g>
<g><path style="opacity:1" fill="#263f75" d="M 110.5,255.5 C 118.426,257.314 126.426,258.814 134.5,260C 135.056,260.383 135.389,260.883 135.5,261.5C 134.5,261.5 133.5,261.5 132.5,261.5C 129.873,260.908 127.206,260.575 124.5,260.5C 123.833,260.5 123.167,260.5 122.5,260.5C 119.495,258.723 116.162,257.723 112.5,257.5C 111.833,256.833 111.167,256.167 110.5,255.5 Z"/></g>
<g><path style="opacity:1" fill="#2e3e71" d="M 191.5,255.5 C 184.987,258.896 177.987,260.896 170.5,261.5C 160.334,262.407 150.334,262.407 140.5,261.5C 143.5,261.5 146.5,261.5 149.5,261.5C 151.099,261.768 152.432,261.434 153.5,260.5C 166.396,260.515 179.062,258.848 191.5,255.5 Z"/></g>
<g><path style="opacity:1" fill="#5e5728" d="M 124.5,260.5 C 127.206,260.575 129.873,260.908 132.5,261.5C 132.5,261.833 132.5,262.167 132.5,262.5C 132.167,262.5 131.833,262.5 131.5,262.5C 128.933,262.279 126.599,261.612 124.5,260.5 Z"/></g>
<g><path style="opacity:1" fill="#2a374c" d="M 132.5,262.5 C 132.5,262.167 132.5,261.833 132.5,261.5C 133.5,261.5 134.5,261.5 135.5,261.5C 137.167,261.5 138.833,261.5 140.5,261.5C 150.334,262.407 160.334,262.407 170.5,261.5C 170.5,262.167 170.167,262.5 169.5,262.5C 157.16,263.751 144.826,263.751 132.5,262.5 Z"/></g>
<g><path style="opacity:1" fill="#c4a708" d="M 131.5,262.5 C 131.833,262.5 132.167,262.5 132.5,262.5C 144.826,263.751 157.16,263.751 169.5,262.5C 169.389,263.117 169.056,263.617 168.5,264C 156.833,264.667 145.167,264.667 133.5,264C 132.584,263.722 131.918,263.222 131.5,262.5 Z"/></g>
<g><path style="opacity:1" fill="#75630d" d="M 207.5,266.5 C 206.22,267.931 204.553,268.598 202.5,268.5C 203.78,267.069 205.447,266.402 207.5,266.5 Z"/></g>
<g><path style="opacity:1" fill="#79670d" d="M 196.5,271.5 C 191.809,273.591 186.809,274.924 181.5,275.5C 186.191,273.409 191.191,272.076 196.5,271.5 Z"/></g>
<g><path style="opacity:1" fill="#514612" d="M 177.5,276.5 C 177.389,277.117 177.056,277.617 176.5,278C 162.028,279.688 147.695,279.854 133.5,278.5C 148.242,278.969 162.908,278.302 177.5,276.5 Z"/></g>
<g><path style="opacity:0.92" fill="#343433" d="M 247.5,297.5 C 244.5,298.167 241.5,298.833 238.5,299.5C 179.833,299.5 121.167,299.5 62.5,299.5C 62.5,299.167 62.5,298.833 62.5,298.5C 124.177,298.795 185.844,298.462 247.5,297.5 Z"/></g>
</svg>
